[
  {
    "status": "error",
    "message": "NkoC"
  },
  {
    "status": "error",
    "message": "gvgw"
  },
  {
    "status": "error",
    "message": "CRkQZ"
  },
  {
    "status": "ok",
    "message": "44mo",
    "total": 23,
    "alerts": [],
    "autoRefresh": false,
    "lastTime": "1993-01-07T03:21:34Z",
    "more": true,
    "page": 11,
    "pageSize": 8,
    "pages": 1,
    "severityCounts": {
      "unknown": 3
    },
    "statusCounts": {
      "ack": 3
    }
  },
  {
    "status": "error",
    "message": "3gan"
  },
  {
    "status": "ok",
    "message": "98z",
    "total": 29,
    "alerts": [
      {
        "status": "closed",
        "attributes": {},
        "correlate": [
          "J0ss",
          "on3"
        ],
        "createTime": "2002-03-04T05:45:42Z",
        "customer": "cEII",
        "duplicateCount": 0,
        "environment": "heC",
        "event": "gPx",
        "group": "1sn",
        "history": [
          {
            "status": "closed",
            "event": "QNu0",
            "id": "407fS9QU-cSe;-LF<c-SR;H-;X;S[BFR[5UC",
            "text": "Gch0y",
            "type": "status",
            "updateTime": "2004-10-10T00:05:55Z"
          },
          {
            "status": "unknown",
            "event": "2h1n",
            "id": "Y<BYMX8=-O70f-T[fE-Z\\Z@-21V<UNa>@E9f",
            "text": "qTPY",
            "type": "status",
            "updateTime": "1983-11-12T01:21:59Z"
          },
          {
            "event": "LW65",
            "id": "P87E\\\\5:-aK<6-ZdC9-49EH-FXBE6ae=DGLf",
            "severity": "major",
            "text": "EP53",
            "type": "severity",
            "updateTime": "2027-07-06T05:04:26Z",
            "value": "LJvF"
          }
        ],
        "href": "qigWW",
        "id": "c\\I@NdLC-QXdd-S0I?-I8`9-?]Y<=CZd^IB5",
        "lastReceiveId": "4<2:XK_^-_]9d-KNV;-I5@V-IcTG<QHYQeAP",
        "lastReceiveTime": "2037-09-25T03:08:38Z",
        "origin": "2HDl",
        "previousSeverity": "informational",
        "rawData": "JVeJ",
        "receiveTime": "2041-06-04T00:59:03Z",
        "repeat": false,
        "resource": "Il3sC",
        "service": [
          "l7aA9",
          "JBx",
          "gPzX",
          "AfaP",
          "Rfvt",
          "wir"
        ],
        "severity": "debug",
        "tags": [
          "yhI",
          "LR5",
          "iyvUR",
          "bW9"
        ],
        "text": "Oqd",
        "timeout": 59804,
        "trendIndication": "noChange",
        "type": "nlX3x",
        "value": "ip2"
      }
    ],
    "autoRefresh": false,
    "lastTime": "2042-07-26T05:10:24Z",
    "more": true,
    "page": 21,
    "pageSize": 12,
    "pages": 9,
    "severityCounts": {
      "cleared": 3
    },
    "statusCounts": {
      "closed": 0
    }
  },
  {
    "status": "error",
    "message": "fDVJE"
  },
  {
    "status": "ok",
    "total": 15,
    "alerts": [
      {
        "status": "expired",
        "attributes": {
          "CqaD": "4Ab"
        },
        "correlate": [
          "BBna",
          "ckxxI",
          "KyGQL"
        ],
        "createTime": "2001-12-23T05:47:22Z",
        "customer": "277q",
        "duplicateCount": 0,
        "environment": "R8te3",
        "event": "x9Y",
        "group": "kPo",
        "history": [
          {
            "event": "u5U",
            "id": "E^UD<<bY-0[GU-S<17-;7de-D:Mc9@8;PL2J",
            "severity": "normal",
            "text": "hVr",
            "type": "severity",
            "updateTime": "2028-10-20T01:27:01Z",
            "value": "HB8"
          },
          {
            "event": "HSAX9",
            "id": "0^F4TIW?-K`T\\-0W:B-7:N9-;O4PK7;1VbcA",
            "severity": "minor",
            "text": "iTs",
            "type": "severity",
            "updateTime": "1974-03-04T04:54:40Z",
            "value": "uvU"
          },
          {
            "event": "op2",
            "id": "GI8cQ=DK-?dM1-PSe3-9;RD-8Z<e3HNLP7=X",
            "severity": "indeterminate",
            "text": "vqzpH",
            "type": "severity",
            "updateTime": "2054-03-20T04:21:19Z",
            "value": "yNf"
          },
          {
            "event": "Mmp",
            "id": "C5Gd`b1K-8d@a-K\\@8-G3Sd-BDOCc4TXfA1Z",
            "severity": "indeterminate",
            "text": "yC1l",
            "type": "severity",
            "updateTime": "2025-09-24T05:24:55Z",
            "value": "kdhik"
          }
        ],
        "href": "tYA8",
        "id": "4KAL]Q^[-b<2P-LdTD-HWPK-ZTRI75P_cI9L",
        "lastReceiveId": "e61c@UK;-Z@Gc-KQM]-3dY`-F:5WVceMU<Pa",
        "lastReceiveTime": "1980-09-11T06:54:37Z",
        "origin": "9IZh8",
        "previousSeverity": "minor",
        "rawData": "T74z",
        "receiveTime": "1988-10-25T04:13:12Z",
        "repeat": false,
        "resource": "gkcu",
        "service": [],
        "severity": "warning",
        "tags": [
          "crv",
          "kyS",
          "BbO",
          "c0w",
          "bHNm",
          "LkwV"
        ],
        "text": "qFfC6",
        "timeout": 39165,
        "trendIndication": "lessSevere",
        "type": "utBn",
        "value": "Ahe"
      }
    ],
    "autoRefresh": false,
    "lastTime": "2013-07-29T02:50:37Z",
    "more": false,
    "page": 17,
    "pageSize": 8,
    "pages": 9,
    "severityCounts": {
      "critical": 3
    },
    "statusCounts": {
      "assign": 1
    }
  },
  {
    "status": "error",
    "message": "euXA"
  },
  {
    "status": "error",
    "message": "OHOx"
  }
]
